Fonction qui calcul la distance entre 2 personnage en fonction de leurs carateristique 
c’est la distance euclidienne qu’on utilise


Variable: 
perso1: dictionnaire contenant les caractéristique du personnage
perso2:  dictionnaire contenant les caractéristique du personnage

DEBUT_FONCTION distance(perso1, perso2):
                  
       RETOURNER  racine carré de ((perso1['Good'] - perso2['Good'])**2 (perso1['Courage'] -
                                                                  perso2['Courage'])**2 + (perso1['Ambition'] -
                                                                  perso2['Ambition'])**2 + (perso1['Intelligence'] -
                                                                  perso2['Intelligence'])**2)

FIN_FONCTION distance 


Fonction
                                                                                            
                                       
Variable
table : 
eleve :

DEBUT_FONCTION liste_distance (table, eleve):
                                  liste_distance = [  ]
    POUR element DANS table:
        liste_distance.append([element, distance(element, eleve)])
    RETOUTNER liste_distance
  
FIN_FONCTION liste_distance


Fonction




Variable
liste_kPPV :



DEBUT_FONCTION  house(liste_kPPV):
                                   houses = {"Gryffindor": 0, "Slytherin": 0, "Ravenclaw": 0,"Hufflepuff": 0}
                                   POUR  element DANS liste_kPPV:
                                           houses[element[1]] += 1
                                   house_k = list(houses.items())
                                   house_k.sort(key=lambda x: x[1], reverse=True)
                                   RETOURNER house_k[0][0]
FIN_FONCTION house 



Fonction




Variable 
k:
liste:

DEBUT_FONCTION KPPV (k, liste):

    kNN = [ ]
    liste.sort(key=lambda x: x[1])
    POUR i DANS range(k):
        kNN.append([liste[i][0]['Name'], liste[i][0]['House']])
   RETOURNER  kNN

FIN_FONCTION  KPPV